{
  "id" : 1,
  "start_time" : "00:01:00",
  "end_time" : "00:11:00",
  "lat" : 11.23,
  "lng" : 15.00,
  "objective_tag" : "Water supply",
  "game_id" : 1,
  "squad_id" : 1,
  "squad_member_id" : 1
}

{
  "id" : 2,
  "start_time" : "01:00:00",
  "end_time" : "02:00:00",
  "lat" : 50.00,
  "lng" : 20.00,
  "objective_tag" : "Ammunition",
  "game_id" : 1,
  "squad_id" : 1,
  "squad_member_id" : 1
}

{
  "id" : 3,
  "start_time" : "00:30:00",
  "end_time" : "01:00:00",
  "lat" : 10.00,
  "lng" : 5.00,
  "objective_tag" : "Bandages & food supply",
  "game_id" : 1,
  "squad_id" : 2,
  "squad_member_id" : 1
}