{
  "id" : 0,
  "squadMemberRank" : true,
  "squadId" : 1,
  "gameId" : 1,
  "playerId" : 1
}

{
  "id" : 1,
  "squadMemberRank" : false,
  "squadId" : 1,
  "gameId" : 1,
  "playerId" : 2
}

{
  "id" : 2,
  "squadMemberRank" : false,
  "squadId" : 1,
  "gameId" : 1,
  "playerId" : 3
}

{
  "id" : 3,
  "squadMemberRank" : false,
  "squadId" : 1,
  "gameId" : 1,
  "playerId" : 4
}

{
  "id" : 4,
  "squadMemberRank" : false,
  "squadId" : 1,
  "gameId" : 1,
  "playerId" : 5
}


{
  "id" : 5,
  "squadMemberRank" : true,
  "squadId" : 2,
  "gameId" : 1,
  "playerId" : 5
}

{
  "id" : 6,
  "squadMemberRank" : false,
  "squadId" : 2,
  "gameId" : 1,
  "playerId" : 6
}